Gráficos do Capítulo 4
…
2 Gráficos do capítulo
5

No capítulo cinco focamos no tidyverse em geral, principalmente no
dplyr. Aprendemos a usar pipes e manipulamos dados para criarmos
gráficos diferentes. Os dados desse capítulo são bem variados.

## # A tibble: 24 × 5
## # Groups:   bigregion [4]
##    bigregion religion       N    freq   pct
##    <fct>     <fct>      <int>   <dbl> <dbl>
##  1 Northeast Protestant   158 0.324      32
##  2 Northeast Catholic     162 0.332      33
##  3 Northeast Jewish        27 0.0553      6
##  4 Northeast None         112 0.230      23
##  5 Northeast Other         28 0.0574      6
##  6 Northeast <NA>           1 0.00205     0
##  7 Midwest   Protestant   325 0.468      47
##  8 Midwest   Catholic     172 0.247      25
##  9 Midwest   Jewish         3 0.00432     0
## 10 Midwest   None         157 0.226      23
## # … with 14 more rows

## # A tibble: 4 × 2
##   bigregion total
##   <fct>     <dbl>
## 1 Northeast   100
## 2 Midwest     101
## 3 South       100
## 4 West        101

## # A tibble: 24 × 5
## # Groups:   bigregion [4]
##    bigregion religion       N    freq   pct
##    <fct>     <fct>      <int>   <dbl> <dbl>
##  1 Northeast Protestant   158 0.324      32
##  2 Northeast Catholic     162 0.332      33
##  3 Northeast Jewish        27 0.0553      6
##  4 Northeast None         112 0.230      23
##  5 Northeast Other         28 0.0574      6
##  6 Northeast <NA>           1 0.00205     0
##  7 Midwest   Protestant   325 0.468      47
##  8 Midwest   Catholic     172 0.247      25
##  9 Midwest   Jewish         3 0.00432     0
## 10 Midwest   None         157 0.226      23
## # … with 14 more rows
…
Apresenta a média de doadores por país, com intervalos de confiança.
Os países são ordenados de acordo com a média de doadores. O eixo x é
invertido e o tema redefenido com o código.

## # A tibble: 49 × 6
##     year winner                 win_party ec_pct popular_pct popular_margin
##    <int> <chr>                  <chr>      <dbl>       <dbl>          <dbl>
##  1  1824 John Quincy Adams      D.-R.      0.322       0.309        -0.104 
##  2  1828 Andrew Jackson         Dem.       0.682       0.559         0.122 
##  3  1832 Andrew Jackson         Dem.       0.766       0.547         0.178 
##  4  1836 Martin Van Buren       Dem.       0.578       0.508         0.142 
##  5  1840 William Henry Harrison Whig       0.796       0.529         0.0605
##  6  1844 James Polk             Dem.       0.618       0.495         0.0145
##  7  1848 Zachary Taylor         Whig       0.562       0.473         0.0479
##  8  1852 Franklin Pierce        Dem.       0.858       0.508         0.0695
##  9  1856 James Buchanan         Dem.       0.588       0.453         0.122 
## 10  1860 Abraham Lincoln        Rep.       0.594       0.396         0.101 
## # … with 39 more rows
…
